…
**Remove <2min rides with same start and end station:**

```r
# create new df with same start and end stations and rides are less than 2mins
same_start_and_end <- Annual_bike_sales_clean %>%
  filter(start_station_name==end_station_name, ride_length < 2) %>%
  arrange(desc(ride_length))

# show tibble of new df to be removed
print(same_start_and_end)
```

```
## # A tibble: 24,375 × 20
##    ride_id          rideable_type started_at          ended_at           
##    <chr>            <chr>         <dttm>              <dttm>             
##  1 B556B87BE9C83601 docked_bike   2022-05-28 23:24:03 2022-05-28 23:26:02
##  2 A73C7B37C146C5FE electric_bike 2022-05-11 16:41:30 2022-05-11 16:43:29
##  3 FD059DFDC288281C electric_bike 2022-05-14 11:58:03 2022-05-14 12:00:02
##  4 E39E771E83E7AAA4 classic_bike  2022-05-09 15:56:10 2022-05-09 15:58:09
##  5 E91CA052E14E8292 classic_bike  2022-05-21 07:24:47 2022-05-21 07:26:46
##  6 5F308DBEC148F623 electric_bike 2022-05-28 12:50:03 2022-05-28 12:52:02
##  7 8F02173A4D0FBD70 electric_bike 2022-05-22 19:47:54 2022-05-22 19:49:53
##  8 41985937ADF28200 electric_bike 2022-05-21 09:36:56 2022-05-21 09:38:55
##  9 47F14A93B6E81066 classic_bike  2022-05-14 23:52:38 2022-05-14 23:54:37
## 10 4FF3D6C7839EAE5B electric_bike 2022-05-29 13:29:24 2022-05-29 13:31:23
## # ℹ 24,365 more rows
## # ℹ 16 more variables: start_station_name <chr>, start_station_id <chr>,
## #   end_station_name <chr>, end_station_id <chr>, start_lat <dbl>,
## #   start_lng <dbl>, end_lat <dbl>, end_lng <dbl>, member_casual <chr>,
## #   ride_length <drtn>, date <date>, month <chr>, day <chr>, year <chr>,
## #   day_of_week <chr>, hour <chr>
```
…
